<?xml version="1.0" encoding="UTF-8" standalone="no"?>
<!-- Created with Inkscape (http://www.inkscape.org/) -->

<svg
   xmlns:dc="http://purl.org/dc/elements/1.1/"
   xmlns:cc="http://creativecommons.org/ns#"
   xmlns:rdf="http://www.w3.org/1999/02/22-rdf-syntax-ns#"
   xmlns:svg="http://www.w3.org/2000/svg"
   xmlns="http://www.w3.org/2000/svg"
   xmlns:xlink="http://www.w3.org/1999/xlink"
   xmlns:sodipodi="http://sodipodi.sourceforge.net/DTD/sodipodi-0.dtd"
   xmlns:inkscape="http://www.inkscape.org/namespaces/inkscape"
   sodipodi:docname="ils.svg"
   inkscape:version="0.48.3.1 r9886"
   version="1.1"
   id="svg5314"
   height="1052.3622047"
   width="744.09448819">
  <defs
     id="defs5316">
    <linearGradient
       id="linearGradient3888">
      <stop
         style="stop-color:#f0b000;stop-opacity:1;"
         offset="0"
         id="stop3890" />
      <stop
         style="stop-color:#000000;stop-opacity:1;"
         offset="1"
         id="stop3892" />
    </linearGradient>
    <linearGradient
       id="linearGradient3880">
      <stop
         style="stop-color:#f0b000;stop-opacity:1;"
         offset="0"
         id="stop3882" />
      <stop
         style="stop-color:#ffffff;stop-opacity:1;"
         offset="1"
         id="stop3884" />
    </linearGradient>
    <linearGradient
       id="linearGradient5424">
      <stop
         style="stop-color:#f0b000;stop-opacity:1;"
         offset="0"
         id="stop5426" />
      <stop
         style="stop-color:#ffffc8;stop-opacity:1;"
         offset="1"
         id="stop5428" />
    </linearGradient>
    <linearGradient
       id="linearGradient5416">
      <stop
         style="stop-color:#f0b000;stop-opacity:1;"
         offset="0"
         id="stop5418" />
      <stop
         style="stop-color:#ffffc8;stop-opacity:1;"
         offset="1"
         id="stop5420" />
    </linearGradient>
    <linearGradient
       id="linearGradient5398">
      <stop
         style="stop-color:#0577bd;stop-opacity:1;"
         offset="0"
         id="stop5400" />
      <stop
         style="stop-color:#ffffff;stop-opacity:1;"
         offset="1"
         id="stop5402" />
    </linearGradient>
    <linearGradient
       id="linearGradient5339">
      <stop
         style="stop-color:#0577bd;stop-opacity:1;"
         offset="0"
         id="stop5341" />
      <stop
         style="stop-color:#ffffff;stop-opacity:1;"
         offset="1"
         id="stop5343" />
    </linearGradient>
    <linearGradient
       id="linearGradient5302">
      <stop
         style="stop-color:#0577bd;stop-opacity:1;"
         offset="0"
         id="stop5304" />
      <stop
         style="stop-color:#ffffff;stop-opacity:1;"
         offset="1"
         id="stop5306" />
    </linearGradient>
    <linearGradient
       id="linearGradient5294">
      <stop
         style="stop-color:#000000;stop-opacity:1;"
         offset="0"
         id="stop5296" />
      <stop
         style="stop-color:#ffffff;stop-opacity:1;"
         offset="1"
         id="stop5298" />
    </linearGradient>
    <linearGradient
       id="linearGradient5286">
      <stop
         style="stop-color:#000000;stop-opacity:1;"
         offset="0"
         id="stop5288" />
      <stop
         style="stop-color:#ffffff;stop-opacity:1;"
         offset="1"
         id="stop5290" />
    </linearGradient>
    <linearGradient
       id="linearGradient5278">
      <stop
         style="stop-color:#000000;stop-opacity:1;"
         offset="0"
         id="stop5280" />
      <stop
         style="stop-color:#ffffff;stop-opacity:1;"
         offset="1"
         id="stop5282" />
    </linearGradient>
    <linearGradient
       id="linearGradient5270">
      <stop
         style="stop-color:#000000;stop-opacity:1;"
         offset="0"
         id="stop5272" />
      <stop
         style="stop-color:#000000;stop-opacity:0;"
         offset="1"
         id="stop5274" />
    </linearGradient>
    <inkscape:path-effect
       effect="spiro"
       id="path-effect6034"
       is_visible="true" />
    <linearGradient
       inkscape:collect="always"
       xlink:href="#linearGradient5278"
       id="linearGradient5284"
       x1="414"
       y1="115.25816"
       x2="467.41513"
       y2="9.9690638"
       gradientUnits="userSpaceOnUse" />
    <linearGradient
       inkscape:collect="always"
       xlink:href="#linearGradient5286"
       id="linearGradient5292"
       x1="40.535019"
       y1="287.46753"
       x2="-53.668232"
       y2="305.79782"
       gradientUnits="userSpaceOnUse"
       gradientTransform="matrix(-0.98603966,0.86383556,1.0575311,0.35715337,376.18972,132.33372)" />
    <linearGradient
       inkscape:collect="always"
       xlink:href="#linearGradient5294"
       id="linearGradient5320"
       gradientUnits="userSpaceOnUse"
       x1="51.59206"
       y1="285.31812"
       x2="-0.59804463"
       y2="128.25072"
       gradientTransform="matrix(0.98603966,0.86383556,-1.0575311,0.35715337,367.90476,132.33372)" />
    <linearGradient
       inkscape:collect="always"
       xlink:href="#linearGradient5339"
       id="linearGradient5345"
       x1="372.04541"
       y1="356.08221"
       x2="464.63385"
       y2="176.99568"
       gradientUnits="userSpaceOnUse" />
    <linearGradient
       inkscape:collect="always"
       xlink:href="#linearGradient5302"
       id="linearGradient5347"
       gradientUnits="userSpaceOnUse"
       x1="196.47095"
       y1="321.77917"
       x2="263.44446"
       y2="211.44868" />
    <linearGradient
       inkscape:collect="always"
       xlink:href="#linearGradient5339"
       id="linearGradient5355"
       gradientUnits="userSpaceOnUse"
       x1="372.04541"
       y1="367.10556"
       x2="372.04541"
       y2="194.59378" />
    <linearGradient
       inkscape:collect="always"
       xlink:href="#linearGradient5294"
       id="linearGradient5379"
       gradientUnits="userSpaceOnUse"
       gradientTransform="matrix(0.98603966,0.86383556,-1.0575311,0.35715337,367.90476,132.33372)"
       x1="51.59206"
       y1="285.31812"
       x2="-0.59804463"
       y2="128.25072" />
    <linearGradient
       inkscape:collect="always"
       xlink:href="#linearGradient5278"
       id="linearGradient5387"
       gradientUnits="userSpaceOnUse"
       x1="414"
       y1="115.25816"
       x2="467.41513"
       y2="9.9690638" />
    <linearGradient
       inkscape:collect="always"
       xlink:href="#linearGradient5286"
       id="linearGradient5395"
       gradientUnits="userSpaceOnUse"
       gradientTransform="matrix(-0.98603966,0.86383556,1.0575311,0.35715337,376.18972,132.33372)"
       x1="40.535019"
       y1="287.46753"
       x2="-53.668232"
       y2="305.79782" />
    <linearGradient
       inkscape:collect="always"
       xlink:href="#linearGradient5398"
       id="linearGradient5404"
       x1="560.48511"
       y1="354.56085"
       x2="593.25513"
       y2="188.9317"
       gradientUnits="userSpaceOnUse" />
    <linearGradient
       inkscape:collect="always"
       xlink:href="#linearGradient5286"
       id="linearGradient5406"
       gradientUnits="userSpaceOnUse"
       gradientTransform="matrix(-0.98603966,0.86383556,1.0575311,0.35715337,376.18972,132.33372)"
       x1="51.458473"
       y1="305.9729"
       x2="-85.753899"
       y2="260.21936" />
    <linearGradient
       inkscape:collect="always"
       xlink:href="#linearGradient5416"
       id="linearGradient5422"
       x1="209.52873"
       y1="731.78229"
       x2="268.5274"
       y2="533.70654"
       gradientUnits="userSpaceOnUse" />
    <linearGradient
       inkscape:collect="always"
       xlink:href="#linearGradient5424"
       id="linearGradient5430"
       x1="551.13464"
       y1="714.38208"
       x2="616.34448"
       y2="567.34772"
       gradientUnits="userSpaceOnUse" />
    <filter
       inkscape:collect="always"
       id="filter5826">
      <feGaussianBlur
         inkscape:collect="always"
         stdDeviation="1.2273352"
         id="feGaussianBlur5828" />
    </filter>
    <filter
       inkscape:collect="always"
       id="filter5906">
      <feGaussianBlur
         inkscape:collect="always"
         stdDeviation="1.2273353"
         id="feGaussianBlur5908" />
    </filter>
    <filter
       inkscape:collect="always"
       id="filter5938">
      <feGaussianBlur
         inkscape:collect="always"
         stdDeviation="1.1064827"
         id="feGaussianBlur5940" />
    </filter>
    <filter
       inkscape:collect="always"
       id="filter5950">
      <feGaussianBlur
         inkscape:collect="always"
         stdDeviation="1.1064828"
         id="feGaussianBlur5952" />
    </filter>
    <linearGradient
       inkscape:collect="always"
       xlink:href="#linearGradient3880"
       id="linearGradient3886"
       x1="372.04541"
       y1="270.25266"
       x2="395.21606"
       y2="176.55867"
       gradientUnits="userSpaceOnUse" />
    <linearGradient
       inkscape:collect="always"
       xlink:href="#linearGradient3888"
       id="linearGradient3894"
       x1="372.04541"
       y1="253.70975"
       x2="372.04541"
       y2="392.98511"
       gradientUnits="userSpaceOnUse" />
    <linearGradient
       inkscape:collect="always"
       xlink:href="#linearGradient5278"
       id="linearGradient3901"
       gradientUnits="userSpaceOnUse"
       x1="414"
       y1="115.25816"
       x2="467.41513"
       y2="9.9690638" />
  </defs>
  <sodipodi:namedview
     id="base"
     pagecolor="#ffffff"
     bordercolor="#666666"
     borderopacity="1.0"
     inkscape:pageopacity="0.0"
     inkscape:pageshadow="2"
     inkscape:zoom="5.4645975"
     inkscape:cx="388.81228"
     inkscape:cy="797.79758"
     inkscape:document-units="px"
     inkscape:current-layer="layer1"
     showgrid="false"
     inkscape:window-width="1440"
     inkscape:window-height="823"
     inkscape:window-x="-3"
     inkscape:window-y="-3"
     inkscape:window-maximized="1"
     showguides="true"
     inkscape:guide-bbox="true">
    <sodipodi:guide
       orientation="0,1"
       position="281,406.5"
       id="guide3044" />
    <sodipodi:guide
       orientation="1,0"
       position="372.04541,604.88957"
       id="guide3046" />
    <sodipodi:guide
       orientation="0,1"
       position="344.361,554.37171"
       id="guide3059" />
    <sodipodi:guide
       orientation="0,1"
       position="277.89296,659.37707"
       id="guide3063" />
    <sodipodi:guide
       orientation="0,1"
       position="145,543.5"
       id="guide3091" />
    <sodipodi:guide
       orientation="0,1"
       position="432.56641,164.05469"
       id="guide3128" />
    <sodipodi:guide
       orientation="0,1"
       position="332.625,158.5"
       id="guide3133" />
    <sodipodi:guide
       orientation="1,0"
       position="330,155"
       id="guide3135" />
    <sodipodi:guide
       orientation="1,0"
       position="414,158.5"
       id="guide3137" />
  </sodipodi:namedview>
  <metadata
     id="metadata5319">
    <rdf:RDF>
      <cc:Work
         rdf:about="">
        <dc:format>image/svg+xml</dc:format>
        <dc:type
           rdf:resource="http://purl.org/dc/dcmitype/StillImage" />
      </cc:Work>
    </rdf:RDF>
  </metadata>
  <g
     inkscape:label="Livello 1"
     inkscape:groupmode="layer"
     id="layer1">
    <path
       style="fill:#ffffff;fill-opacity:1;fill-rule:nonzero;stroke:none"
       d="m 432.15625,252.71875 c -0.21656,0.69832 -0.51318,1.37942 -0.84375,2.0625 -0.007,0.0217 -0.024,0.0408 -0.0313,0.0625 -4.82897,14.53047 -38.05702,25.70162 -59.1875,25.6875 -21.88099,-0.0146 -56.84761,-12.00615 -59.6875,-27.3125 -0.009,-0.003 -0.0222,0.003 -0.0313,0 -0.0168,-0.0903 -0.0399,-0.18905 -0.0625,-0.28125 -0.0102,1.00846 -0.0313,2.0156 -0.0313,3.03125 0,13.38301 0.60654,26.38381 1.6875,38.84375 9e-4,0.0103 -9e-4,0.0209 0,0.0313 16.42687,9.66486 34.74201,13.81646 58.0625,14.0625 l 0,0.0313 c 23.53179,-0.24827 41.98071,-4.49031 58.53125,-14.34375 1.07383,-12.39177 1.625,-25.32278 1.625,-38.625 0,-1.08893 -0.0243,-2.16794 -0.0313,-3.25 z"
       id="rect3086"
       inkscape:connector-curvature="0" />
    <path
       style="fill:#ffffff;fill-opacity:1;fill-rule:nonzero;stroke:none"
       d="m 372.03125,431.78125 c -39.95285,8.6e-4 -94.83882,23.00853 -139.96875,46.1875 -1.77699,15.59563 -2.71875,31.71891 -2.71875,48.21875 0,136.73052 63.90501,247.5625 142.71875,247.5625 78.81374,0 142.6875,-110.83198 142.6875,-247.5625 0,-16.48776 -0.94496,-32.60245 -2.71875,-48.1875 -45.14288,-23.1842 -100.03885,-46.21975 -140,-46.21875 z"
       id="rect3076"
       inkscape:connector-curvature="0"
       sodipodi:nodetypes="scssscs" />
    <path
       style="fill:url(#linearGradient5379);fill-opacity:1;fill-rule:evenodd;stroke:#000000;stroke-width:1.1250335px;stroke-linecap:butt;stroke-linejoin:miter;stroke-opacity:1"
       d="M 96.59375,232.34375 C 89.757075,232.48999 83.488271,233.45898 78,235.3125 c -33.452319,11.29764 -25.294437,51.34834 18.21875,89.46875 4.09024,3.58332 8.36583,7.03242 12.75,10.3125 l 58.6875,-84.0625 C 143.852,239.38928 119.51777,232.58117 99.5625,232.34375 c -0.998996,-0.0119 -1.992082,-0.0209 -2.96875,0 z"
       id="path4089"
       inkscape:connector-curvature="0"
       sodipodi:nodetypes="sssccss" />
    <path
       style="fill:url(#linearGradient5406);fill-opacity:1;fill-rule:evenodd;stroke:#000000;stroke-width:1.1250335px;stroke-linecap:butt;stroke-linejoin:miter;stroke-opacity:1"
       d="m 644.53125,232.34375 c -19.96236,0.23751 -44.31267,7.03795 -68.125,18.6875 l 58.71875,84.0625 c 4.38417,-3.28008 8.65976,-6.72918 12.75,-10.3125 43.51319,-38.12041 51.67107,-78.17111 18.21875,-89.46875 -6.27231,-2.11831 -13.57053,-3.06384 -21.5625,-2.96875 z"
       id="path4095"
       inkscape:connector-curvature="0"
       sodipodi:nodetypes="sccsss" />
    <path
       style="fill:#000000;stroke:#000000;stroke-width:1px;stroke-linecap:butt;stroke-linejoin:miter;stroke-opacity:1"
       d="M 511.34375 472.25 C 513.56794 489.61462 514.75 507.66095 514.75 526.1875 C 514.75 662.91802 450.87624 773.75 372.0625 773.75 C 293.24876 773.75 229.34375 662.91802 229.34375 526.1875 C 229.34375 507.67191 230.52837 489.63641 232.75 472.28125 C 186.663 498.39001 150.65065 524.95661 150.53125 525.3125 C 150.29578 526.01436 149.6634 527.5967 149.15625 529.1875 C 145.57712 540.41438 143 557.86015 143 577.875 C 143 704.37553 245.56197 806.9375 372.0625 806.9375 C 498.56304 806.9375 601.09375 704.37553 601.09375 577.875 C 601.09375 557.87672 598.52999 540.43951 594.96875 529.25 C 594.45537 527.63693 593.8331 525.99441 593.59375 525.28125 C 593.47238 524.91962 557.44147 498.35209 511.34375 472.25 z "
       id="path3099" />
    <path
       style="fill:url(#linearGradient5422);fill-opacity:1;stroke:#000000;stroke-width:1px;stroke-linecap:butt;stroke-linejoin:miter;stroke-opacity:1"
       d="m 197.55413,797.14183 c -40.95605,1.4098 -77.98383,17.62 -115.577515,5.0461 -12.49933,-4.6237 -25.38233,-14.9377 -26.18579,-29.69311 -0.22134,-16.9668 8.20632,-33.9782 22.31708,-42.65783 10.79362,-8.06938 30.854535,-13.97006 24.044215,-31.35464 -3.595795,-19.81857 -17.594495,-39.90452 -8.783205,-60.292 7.978625,-15.44784 27.401215,-16.17301 42.600485,-16.19693 15.76167,1.82514 35.81902,-3.39739 35.11783,-22.76151 1.3118,-16.68941 -2.957,-37.13931 11.47181,-49.46957 30.61425,-26.02333 67.15547,12.4116 85.18426,37.27996 27.07052,40.51834 36.1501,89.44246 42.58654,136.88543 1.67314,19.18239 2.67903,39.64909 -5.05739,57.6983 -6.8301,14.3278 -22.94464,21.4662 -38.30061,20.5585 -23.28084,0.7553 -46.17246,-4.9734 -69.41771,-5.0427 z"
       id="path5355"
       inkscape:connector-curvature="0"
       sodipodi:nodetypes="cccccccccccccc" />
    <path
       style="fill:none;stroke:#000000;stroke-width:1px;stroke-linecap:butt;stroke-linejoin:miter;stroke-opacity:0.99607842999999996;filter:url(#filter5826)"
       d="m 178.17753,646.43458 c 0.42273,11.23519 3.78729,18.05765 9.59645,21.2132 25.52321,9.90374 32.08475,29.51872 36.87056,55.05331"
       id="path5488"
       inkscape:connector-curvature="0"
       sodipodi:nodetypes="ccc" />
    <path
       style="fill:none;stroke:#000000;stroke-width:1px;stroke-linecap:butt;stroke-linejoin:miter;stroke-opacity:1;filter:url(#filter5950)"
       d="m 121.08649,728.50863 c -0.4738,6.30955 5.94698,11.75729 20.70813,16.16239 16.55468,5.3875 15.33076,10.775 20.70814,16.1625"
       id="path5490"
       inkscape:connector-curvature="0"
       sodipodi:nodetypes="ccc" />
    <path
       sodipodi:nodetypes="cccccccccccccc"
       inkscape:connector-curvature="0"
       id="path6093"
       d="m 546.53962,797.14184 c 40.95605,1.4098 77.98383,17.62 115.57752,5.0461 12.49933,-4.6237 25.38233,-14.9377 26.18579,-29.69312 0.22134,-16.9668 -8.20632,-33.9782 -22.31708,-42.65783 -10.79363,-8.06938 -30.85455,-13.97006 -24.04422,-31.35464 3.5958,-19.81857 17.5945,-39.90452 8.78321,-60.292 -7.97863,-15.44784 -27.40122,-16.17301 -42.60049,-16.19693 -15.76167,1.82514 -35.81902,-3.39739 -35.11783,-22.76151 -1.3118,-16.68941 2.957,-37.13931 -11.47181,-49.46957 -30.61425,-26.02333 -67.15548,12.4116 -85.18427,37.27996 -27.07052,40.51834 -36.1501,89.44246 -42.58654,136.88543 -1.67314,19.18239 -2.67903,39.64909 5.05739,57.6983 6.8301,14.32781 22.94464,21.46621 38.30061,20.55851 23.28084,0.7553 46.17246,-4.9734 69.41772,-5.0427 z"
       style="fill:url(#linearGradient5430);fill-opacity:1;stroke:#000000;stroke-width:1px;stroke-linecap:butt;stroke-linejoin:miter;stroke-opacity:1" />
    <path
       sodipodi:nodetypes="ccc"
       inkscape:connector-curvature="0"
       id="path6095"
       d="m 565.91622,646.43458 c -0.42273,11.23519 -3.78729,18.05765 -9.59645,21.2132 -25.52322,9.90374 -32.08475,29.51872 -36.87057,55.05331"
       style="fill:none;stroke:#000000;stroke-width:1px;stroke-linecap:butt;stroke-linejoin:miter;stroke-opacity:1;filter:url(#filter5906)" />
    <path
       sodipodi:nodetypes="ccc"
       inkscape:connector-curvature="0"
       id="path6097"
       d="m 623.00725,728.50863 c 0.4738,6.30955 -5.94698,11.75729 -20.70813,16.16239 -16.55467,5.3875 -15.33076,10.775 -20.70813,16.1625"
       style="fill:none;stroke:#000000;stroke-width:1px;stroke-linecap:butt;stroke-linejoin:miter;stroke-opacity:1;filter:url(#filter5938)" />
    <path
       style="fill:url(#linearGradient3901);fill-rule:evenodd;stroke:none;stroke-width:1.04295373000000002px;stroke-linecap:butt;stroke-linejoin:miter;stroke-opacity:1;fill-opacity:1"
       d="M 372.03125 46.78125 C 315.43392 46.78125 269.53125 109.24939 269.53125 186.28125 C 269.53125 224.4002 280.78858 258.95019 299 284.125 C 303.86539 288.2802 308.82801 291.81904 313.96875 294.84375 C 312.8861 282.37438 312.28125 269.36285 312.28125 255.96875 C 312.28125 254.95311 312.30647 253.94702 312.3125 252.9375 C 312.10167 252.07827 311.69339 251.15725 312.09375 250.40625 C 322.75275 230.41173 338.92201 218.28125 372.03125 218.28125 C 405.14049 218.28125 421.40365 230.37755 432 250.40625 L 432.15625 250.40625 C 432.15901 250.63475 432.15389 250.86519 432.15625 251.09375 C 432.15975 251.21385 432.17134 251.34503 432.15625 251.46875 C 432.17029 252.96517 432.1875 254.46102 432.1875 255.96875 C 432.1875 269.28199 431.63809 282.22386 430.5625 294.625 C 435.51003 291.68059 440.27712 288.24547 444.96875 284.25 C 463.23577 259.0651 474.5 224.46565 474.5 186.28125 C 474.5 109.24939 428.62858 46.78125 372.03125 46.78125 z "
       id="path3118" />
    <path
       sodipodi:type="arc"
       style="fill:#ffffff;fill-rule:evenodd;stroke:#000000;stroke-width:1px;stroke-linecap:butt;stroke-linejoin:miter;stroke-opacity:1"
       id="path4015"
       sodipodi:cx="-528.20874"
       sodipodi:cy="9.3796854"
       sodipodi:rx="44.547726"
       sodipodi:ry="60.104076"
       d="m -483.66101,9.3796854 a 44.547726,60.104076 0 1 1 -89.09546,0 44.547726,60.104076 0 1 1 89.09546,0 z"
       transform="matrix(0.71217781,0.11034133,-0.12457816,0.80406682,710.1272,206.5647)" />
    <path
       transform="matrix(0.35582447,0.0551297,-0.06224282,0.40173486,520.30744,197.17518)"
       d="m -483.66101,9.3796854 a 44.547726,60.104076 0 1 1 -89.09546,0 44.547726,60.104076 0 1 1 89.09546,0 z"
       sodipodi:ry="60.104076"
       sodipodi:rx="44.547726"
       sodipodi:cy="9.3796854"
       sodipodi:cx="-528.20874"
       id="path4019"
       style="fill:#000000;fill-rule:evenodd;stroke:#000000;stroke-width:1px;stroke-linecap:butt;stroke-linejoin:miter;stroke-opacity:1"
       sodipodi:type="arc" />
    <path
       transform="matrix(-0.71217781,0.11034133,0.12457816,0.80406682,33.933097,206.5647)"
       d="m -483.66101,9.3796854 a 44.547726,60.104076 0 1 1 -89.09546,0 44.547726,60.104076 0 1 1 89.09546,0 z"
       sodipodi:ry="60.104076"
       sodipodi:rx="44.547726"
       sodipodi:cy="9.3796854"
       sodipodi:cx="-528.20874"
       id="path4021"
       style="fill:#ffffff;fill-rule:evenodd;stroke:#000000;stroke-width:1px;stroke-linecap:butt;stroke-linejoin:miter;stroke-opacity:1"
       sodipodi:type="arc" />
    <path
       sodipodi:type="arc"
       style="fill:#000000;fill-rule:evenodd;stroke:#000000;stroke-width:1px;stroke-linecap:butt;stroke-linejoin:miter;stroke-opacity:1"
       id="path4023"
       sodipodi:cx="-528.20874"
       sodipodi:cy="9.3796854"
       sodipodi:rx="44.547726"
       sodipodi:ry="60.104076"
       d="m -483.66101,9.3796854 a 44.547726,60.104076 0 1 1 -89.09546,0 44.547726,60.104076 0 1 1 89.09546,0 z"
       transform="matrix(-0.35582447,0.0551297,0.06224282,0.40173486,223.75287,197.17518)" />
    <path
       style="fill:url(#linearGradient3894);fill-opacity:1;fill-rule:evenodd;stroke:#000000;stroke-width:0.76760536000000001px;stroke-linecap:butt;stroke-linejoin:miter;stroke-opacity:1"
       d="m 431.69562,253.3543 c -2.06459,0.6305 -4.42301,1.27615 -7.22537,1.74999 -3.07979,0.52075 -6.56876,0.87499 -10.41579,0.87499 -1.92352,0 -3.9474,0.19234 -6.0055,0.5625 -2.05809,0.37016 -4.14522,0.89668 -6.25573,1.53124 -4.221,1.2691 -8.47997,2.96408 -12.41762,4.65623 -3.93764,1.69214 -7.54396,3.38712 -10.5409,4.65622 -1.49847,0.63456 -2.86361,1.16108 -4.00367,1.53124 -1.14005,0.37016 -2.08434,0.59375 -2.7838,0.59375 -0.69946,0 -1.63702,-0.22359 -2.81508,-0.59375 -1.17805,-0.37016 -2.5714,-0.89668 -4.12878,-1.53124 -3.11476,-1.2691 -6.91109,-2.96408 -10.94752,-4.65622 -4.03644,-1.69215 -8.31623,-3.38713 -12.48018,-4.65623 -2.08198,-0.63456 -4.13439,-1.16108 -6.09934,-1.53124 -1.96495,-0.37016 -3.85022,-0.5625 -5.59887,-0.5625 -3.49731,0 -6.81615,-0.35424 -9.8215,-0.87499 -2.93554,-0.50866 -5.53131,-1.19688 -7.7571,-1.87499 2.83989,15.30635 37.79866,27.29772 59.67965,27.31235 21.84469,0.0146 56.66023,-11.94133 59.6171,-27.18735 z"
       id="path3145"
       inkscape:connector-curvature="0"
       sodipodi:nodetypes="cssssssssssssssscac" />
    <path
       style="fill:url(#linearGradient3886);fill-opacity:1;fill-rule:evenodd;stroke:#000000;stroke-width:0.76760536000000001px;stroke-linecap:butt;stroke-linejoin:miter;stroke-opacity:1"
       d="m 372.04362,218.29199 c -33.10924,0 -49.28505,12.1303 -59.94405,32.12482 -0.44332,0.83158 0.10862,1.88064 0.28151,2.81249 2.22579,0.67811 4.82156,1.36633 7.7571,1.87499 3.00535,0.52075 6.32419,0.87499 9.82149,0.87499 1.74866,0 3.63393,0.19234 5.59888,0.5625 1.96495,0.37016 4.01736,0.89668 6.09934,1.53124 4.16395,1.2691 8.44374,2.96408 12.48018,4.65623 4.03643,1.69214 7.83276,3.38712 10.94752,4.65622 1.55738,0.63456 2.95072,1.16108 4.12878,1.53124 1.17806,0.37016 2.11562,0.59375 2.81508,0.59375 0.69946,0 1.64375,-0.22359 2.7838,-0.59375 1.14005,-0.37016 2.50519,-0.89668 4.00367,-1.53124 2.99694,-1.2691 6.60325,-2.96408 10.5409,-4.65622 3.93765,-1.69215 8.19662,-3.38713 12.41762,-4.65623 2.1105,-0.63456 4.19764,-1.16108 6.25573,-1.53124 2.0581,-0.37016 4.08198,-0.5625 6.0055,-0.5625 3.84703,0 7.336,-0.35424 10.41579,-0.87499 2.80236,-0.47384 5.16078,-1.11949 7.22537,-1.74999 0.18865,-0.97273 0.77335,-2.06693 0.31278,-2.93749 -10.59635,-20.0287 -26.83775,-32.12482 -59.94699,-32.12482 z"
       id="path3120"
       inkscape:connector-curvature="0"
       sodipodi:nodetypes="zacssssssssssssssscaz" />
    <path
       sodipodi:type="arc"
       style="fill:#000000;fill-rule:evenodd;stroke:none;fill-opacity:1"
       id="path3122"
       sodipodi:cx="-183.16304"
       sodipodi:cy="-17.943342"
       sodipodi:rx="5.9913144"
       sodipodi:ry="5.5633636"
       d="m -177.17173,-17.943342 a 5.9913144,5.5633636 0 1 1 -11.98262,0 5.9913144,5.5633636 0 1 1 11.98262,0 z"
       transform="matrix(0.7007861,0.32526316,-0.47015923,0.82767772,477.41244,300.71992)"
       inkscape:transform-center-x="3.5243031"
       inkscape:transform-center-y="-2.723321" />
    <path
       inkscape:transform-center-y="-2.723321"
       inkscape:transform-center-x="-3.5243001"
       transform="matrix(-0.7007861,0.32526316,0.47015923,0.82767772,267.72313,300.71992)"
       d="m -177.17173,-17.943342 a 5.9913144,5.5633636 0 1 1 -11.98262,0 5.9913144,5.5633636 0 1 1 11.98262,0 z"
       sodipodi:ry="5.5633636"
       sodipodi:rx="5.9913144"
       sodipodi:cy="-17.943342"
       sodipodi:cx="-183.16304"
       id="path3124"
       style="fill:#000000;fill-rule:evenodd;stroke:none;"
       sodipodi:type="arc" />
    <path
       style="fill:url(#linearGradient5355);stroke:#000000;stroke-width:1px;stroke-linecap:butt;stroke-linejoin:miter;stroke-opacity:1;fill-opacity:1"
       d="m 572.21912,395.35297 c -0.56124,-0.30924 -1.16252,-0.59367 -1.71875,-0.90625 -3.76151,-2.11385 -7.39668,-4.30152 -10.9375,-6.5625 -3.54082,-2.26098 -6.97735,-4.60191 -10.3125,-7 -3.33515,-2.39809 -6.57425,-4.84981 -9.71875,-7.375 -3.1445,-2.52519 -6.18738,-5.10772 -9.15625,-7.75 -2.96887,-2.64228 -5.87923,-5.3444 -8.6875,-8.09375 -2.80827,-2.74935 -5.52481,-5.55985 -8.1875,-8.40625 -5.32537,-5.69281 -10.38558,-11.57281 -15.21875,-17.59375 -4.83317,-6.02094 -9.44511,-12.16854 -13.90625,-18.4375 -4.46114,-6.26896 -8.75947,-12.65688 -12.96875,-19.09375 -0.33382,-0.51049 -0.66735,-1.01998 -1,-1.53125 -19.26423,-3.93651 -20.90625,-12.40625 -20.90625,-12.40625 -21.68304,20.32549 -44.63459,28.40359 -77.46875,28.75 l 0,-0.0313 c -32.83416,-0.34641 -55.75446,-8.42451 -77.4375,-28.75 0,0 -1.54565,8.08654 -19.65625,12.125 -0.28874,0.44349 -0.55412,0.90085 -0.84375,1.34375 -4.20928,6.43687 -8.50761,12.82479 -12.96875,19.09375 -4.46114,6.26896 -9.07308,12.41656 -13.90625,18.4375 -4.83317,6.02094 -9.89338,11.90094 -15.21875,17.59375 -2.66269,2.8464 -5.37923,5.6569 -8.1875,8.40625 -2.80827,2.74935 -5.71863,5.45147 -8.6875,8.09375 -2.96887,2.64228 -6.01175,5.22481 -9.15625,7.75 -3.1445,2.52519 -6.3836,4.97691 -9.71875,7.375 -3.33515,2.39809 -6.77168,4.73902 -10.3125,7 -3.54082,2.26098 -7.17599,4.44865 -10.9375,6.5625 -0.96038,0.5397 -1.99337,1.0328 -2.96875,1.5625 1.74068,2.38644 3.1961,4.66785 4.0625,6.65625 8.85073,20.31248 4.59392,26.30382 2.75,45.5 -1.41889,14.77138 -11.24188,36.46123 -20.53125,58.21875 -2.55357,4.97349 -4.92282,10.87233 -7.75,19.28125 0.75245,-0.49771 141.21359,-93.37328 221.46875,-93.375 80.28644,-0.002 220.85658,92.94937 221.5,93.375 -2.82021,-8.38692 -5.20407,-14.37514 -7.8125,-19.4375 -9.26691,-21.69774 -19.05373,-43.30016 -20.46875,-58.03125 -1.84392,-19.19618 -6.10073,-25.18752 2.75,-45.5 0.89037,-2.04339 2.40812,-4.38187 4.21875,-6.84375 z"
       id="path3104"
       inkscape:connector-curvature="0"
       sodipodi:nodetypes="cssssssssssccccccsssssssssscssccsccssc" />
    <path
       style="fill:url(#linearGradient5404);stroke:#000000;stroke-width:1px;stroke-linecap:butt;stroke-linejoin:miter;stroke-opacity:1;fill-opacity:1"
       d="m 572.50037,245.44672 c 0,0 -74.12606,51.42222 -97.75,48 -1.62754,-0.23577 -2.91837,-0.55248 -4.34375,-0.84375 0.33265,0.51127 0.66618,1.02076 1,1.53125 4.20928,6.43687 8.50761,12.82479 12.96875,19.09375 4.46114,6.26896 9.07308,12.41656 13.90625,18.4375 4.83317,6.02094 9.89338,11.90094 15.21875,17.59375 2.66269,2.8464 5.37923,5.6569 8.1875,8.40625 2.80827,2.74935 5.71863,5.45147 8.6875,8.09375 2.96887,2.64228 6.01175,5.22481 9.15625,7.75 3.1445,2.52519 6.3836,4.97691 9.71875,7.375 3.33515,2.39809 6.77168,4.73902 10.3125,7 3.54082,2.26098 7.17599,4.44865 10.9375,6.5625 0.55623,0.31258 1.15751,0.59701 1.71875,0.90625 16.18807,-22.01061 64.53125,-57.90625 64.53125,-57.90625 l -64.25,-92 z"
       id="path3095"
       inkscape:connector-curvature="0" />
    <path
       style="fill:url(#linearGradient5347);stroke:#000000;stroke-width:1px;stroke-linecap:butt;stroke-linejoin:miter;stroke-opacity:1;fill-opacity:1"
       d="m 171.59412,245.41547 -64.25,92 c 0,0 48.64628,36.10149 64.6875,58.09375 0.97538,-0.5297 2.00837,-1.0228 2.96875,-1.5625 3.76151,-2.11385 7.39668,-4.30152 10.9375,-6.5625 3.54082,-2.26098 6.97735,-4.60191 10.3125,-7 3.33515,-2.39809 6.57425,-4.84981 9.71875,-7.375 3.1445,-2.52519 6.18738,-5.10772 9.15625,-7.75 2.96887,-2.64228 5.87923,-5.3444 8.6875,-8.09375 2.80827,-2.74935 5.52481,-5.55985 8.1875,-8.40625 5.32537,-5.69281 10.38558,-11.57281 15.21875,-17.59375 4.83317,-6.02094 9.44511,-12.16854 13.90625,-18.4375 4.46114,-6.26896 8.75947,-12.65688 12.96875,-19.09375 0.28963,-0.4429 0.55501,-0.90026 0.84375,-1.34375 -1.76572,0.39374 -3.4951,0.82099 -5.59375,1.125 -23.62394,3.42222 -97.75,-48 -97.75,-48 z"
       id="path3056"
       inkscape:connector-curvature="0" />
    <g
       transform="matrix(1.6139898,0,0,1.5185203,22.829863,-515.93298)"
       style="font-size:72px;font-style:normal;font-variant:normal;font-weight:bold;font-stretch:normal;line-height:125%;letter-spacing:0px;word-spacing:0px;fill:#ffffff;fill-opacity:1;stroke:#000000;stroke-width:0.7420305;stroke-opacity:1;font-family:Arial;-inkscape-font-specification:Arial Bold"
       id="flowRoot4618">
      <path
         d="m 177.76845,617.84529 12.22431,-36.8431 7.43901,0 -12.22431,36.8431 -7.43901,0"
         id="path4742"
         inkscape:connector-curvature="0"
         style="stroke-width:0.5304482" />
      <path
         d="m 196.64117,617.84529 6.06213,-36.5416 7.43902,0 -5.03232,30.3341 18.49702,0 -1.02983,6.2075 -25.93602,0"
         id="path4744"
         inkscape:connector-curvature="0"
         style="stroke-width:0.5304482" />
      <path
         d="m 224.36829,605.85749 7.0633,-0.7037 c 1.0386,2.4293 2.36111,4.2137 3.96752,5.3531 1.62312,1.1393 3.56564,1.7089 5.82751,1.7089 2.39588,0 4.07224,-0.5026 5.02906,-1.5079 0.9694,-1.022 1.28566,-2.2116 0.94883,-3.5688 -0.21626,-0.8712 -0.65893,-1.6083 -1.32802,-2.2115 -0.65653,-0.6199 -1.6776,-1.1561 -3.0632,-1.6084 -0.94611,-0.3016 -3.0646,-0.8378 -6.35546,-1.6084 -4.23295,-0.9886 -7.33246,-2.2033 -9.29854,-3.6442 -2.76505,-2.0273 -4.50938,-4.4985 -5.23299,-7.4139 -0.46577,-1.8765 -0.37257,-3.6273 0.27957,-5.2525 0.66475,-1.6419 1.88797,-2.8901 3.66967,-3.7447 1.79845,-0.8544 4.11344,-1.2816 6.94495,-1.2817 4.62425,10e-5 8.35241,1.0137 11.1845,3.0409 2.84881,2.0274 4.75189,4.7333 5.70924,8.1177 l -7.35793,0.3267 c -0.78827,-1.8932 -1.81205,-3.2504 -3.07135,-4.0713 -1.24673,-0.8377 -2.91724,-1.2566 -5.01154,-1.2567 -2.16135,1e-4 -3.74336,0.444 -4.74602,1.3321 -0.64608,0.5696 -0.85059,1.3319 -0.61354,2.2869 0.21624,0.8713 0.7699,1.6169 1.66097,2.2368 1.13371,0.7874 3.6161,1.6084 7.44717,2.4629 3.83107,0.8545 6.72381,1.7425 8.67827,2.6639 1.96702,0.9048 3.63395,2.153 5.00082,3.7447 1.37939,1.5749 2.35813,3.5268 2.93622,5.8557 0.52396,2.111 0.42826,4.088 -0.28706,5.9311 -0.71541,1.8429 -2.03309,3.2169 -3.95308,4.1216 -1.9242,0.8879 -4.48633,1.332 -7.68644,1.332 -4.65777,0 -8.50101,-1.0724 -11.52974,-3.2169 -3.0329,-2.1614 -5.3038,-5.3028 -6.81269,-9.4244"
         id="path4746"
         inkscape:connector-curvature="0"
         style="stroke-width:0.5304482" />
    </g>
    <path
       inkscape:connector-curvature="0"
       id="path4748"
       d="m 481.17998,347.99301 c 5.72653,-3.18604 7.18493,-8.75992 2.93669,-13.99024 l 0.0106,-0.002 -14.51416,-17.84562 -12.09738,2.73515 23.66925,29.10198 z"
       style="fill:#ff0000;fill-opacity:1;fill-rule:nonzero;stroke:#000000;stroke-width:0.14216341;stroke-linecap:butt;stroke-linejoin:miter;stroke-miterlimit:4;stroke-opacity:1;stroke-dasharray:none" />
    <path
       inkscape:connector-curvature="0"
       id="path4750"
       d="m 445.40134,321.6289 -12.09738,2.73515 14.51414,17.84564 0.0106,-0.002 c 4.25801,5.22811 12.92161,8.51345 21.24682,8.52247 L 445.4063,321.62818 z"
       style="fill:#008000;fill-opacity:1;fill-rule:nonzero;stroke:#000000;stroke-width:0.14216353;stroke-linecap:butt;stroke-linejoin:miter;stroke-miterlimit:4;stroke-opacity:1;stroke-dasharray:none" />
    <path
       inkscape:connector-curvature="0"
       id="path4752"
       d="m 445.41042,321.62844 23.667,29.09934 c 2.23333,-0.0185 4.45172,-0.2451 6.56981,-0.72398 2.11807,-0.47888 3.95882,-1.17004 5.52365,-2.0103 l -23.667,-29.09932 -12.09346,2.73426 z"
       style="fill:#ffffff;fill-opacity:1;fill-rule:nonzero;stroke:#000000;stroke-width:0.14572135;stroke-linecap:butt;stroke-linejoin:miter;stroke-miterlimit:4;stroke-opacity:1;stroke-dasharray:none" />
  </g>
</svg>
