<?xml version="1.0" encoding="UTF-8" standalone="no"?>
<svg
   xmlns:dc="http://purl.org/dc/elements/1.1/"
   xmlns:cc="http://creativecommons.org/ns#"
   xmlns:rdf="http://www.w3.org/1999/02/22-rdf-syntax-ns#"
   xmlns:svg="http://www.w3.org/2000/svg"
   xmlns="http://www.w3.org/2000/svg"
   xmlns:sodipodi="http://sodipodi.sourceforge.net/DTD/sodipodi-0.dtd"
   xmlns:inkscape="http://www.inkscape.org/namespaces/inkscape"
   inkscape:version="1.0 (4035a4fb49, 2020-05-01)"
   id="svg8"
   version="1.1"
   viewBox="0 0 72.670616 71.136375"
   height="71.136375mm"
   width="72.670616mm">
  <defs
     id="defs2" />
  <sodipodi:namedview
     inkscape:window-maximized="1"
     inkscape:window-y="-8"
     inkscape:window-x="-8"
     inkscape:window-height="1017"
     inkscape:window-width="1920"
     fit-margin-bottom="7"
     fit-margin-right="7"
     fit-margin-left="7"
     lock-margins="true"
     fit-margin-top="7"
     showgrid="false"
     inkscape:document-rotation="0"
     inkscape:current-layer="layer1"
     inkscape:document-units="mm"
     inkscape:cy="557.43333"
     inkscape:cx="411.80345"
     inkscape:zoom="0.35"
     inkscape:pageshadow="2"
     inkscape:pageopacity="0.0"
     borderopacity="1.0"
     bordercolor="#666666"
     pagecolor="#ffffff"
     id="base" />
  <metadata
     id="metadata5">
    <rdf:RDF>
      <cc:Work
         rdf:about="">
        <dc:format>image/svg+xml</dc:format>
        <dc:type
           rdf:resource="http://purl.org/dc/dcmitype/StillImage" />
        <dc:title></dc:title>
      </cc:Work>
    </rdf:RDF>
  </metadata>
  <g
     transform="translate(3.1229959,-0.6790987)"
     id="layer1"
     inkscape:groupmode="layer"
     inkscape:label="Livello 1">
    <g
       transform="translate(-272.38144,-226.06819)"
       id="g1416">
      <circle
         r="24.509848"
         cy="401.27267"
         cx="25.288887"
         style="fill:#000000;fill-opacity:1;stroke:#000000;stroke-width:8.94509;stroke-linecap:round;stroke-linejoin:round;stroke-miterlimit:4;stroke-dasharray:none;stroke-opacity:1"
         id="circle1458-7-1"
         transform="matrix(0.71641184,-0.69767763,0.71641184,0.69767763,0,0)"
         inkscape:export-xdpi="90"
         inkscape:export-ydpi="90" />
      <g
         aria-label="Italian  Linux  Society"
         id="text2027-8"
         style="font-style:normal;font-weight:normal;font-size:11.3059px;line-height:0.75;font-family:sans-serif;letter-spacing:0px;word-spacing:0px;fill:#ffa200;fill-opacity:1;stroke:none;stroke-width:0.282647">
        <path
           d="m 286.42064,256.41571 v -1.3454 h 0.5653 v -3.88923 h -0.5653 v -1.35671 h 3.39177 v 1.35671 h -0.56529 v 3.88923 h 0.56529 v 1.3454 z"
           style="font-style:normal;font-variant:normal;font-weight:900;font-stretch:normal;font-family:Rokkitt;-inkscape-font-specification:'Rokkitt Heavy';fill:#ffa200;fill-opacity:1;stroke-width:0.282647"
           id="path2532" />
        <path
           d="m 292.56416,256.41571 q -1.51499,0 -1.51499,-1.35671 v -2.06898 h -0.50876 v -1.13059 h 0.49746 v -1.44715 l 1.97853,-0.26004 v 1.70719 h 0.9723 v 1.13059 h -0.9723 v 1.69589 q 0,0.30526 0.11306,0.42962 0.12436,0.12437 0.40701,0.12437 h 0.45223 v 1.17581 z"
           style="fill:#ffffff;stroke-width:0.282647"
           id="path2534" />
        <path
           d="m 299.65172,255.28512 v 1.13059 h -2.09159 l -0.15828,-0.40701 q -0.58791,0.52007 -1.39063,0.52007 -0.68966,0 -1.09667,-0.35048 -0.3957,-0.36179 -0.3957,-0.97231 0,-0.72358 0.50876,-1.06276 0.52007,-0.35048 1.28887,-0.35048 0.53138,0 0.91578,0.13567 v -0.12436 q 0,-0.79142 -0.79141,-0.79142 -0.31657,0 -0.65574,0.0905 -0.32788,0.0791 -0.82533,0.29396 l -0.41832,-1.10798 q 1.23234,-0.54269 2.44207,-0.54269 1.04014,0 1.60544,0.50877 0.56529,0.50876 0.56529,1.43585 v 1.59413 z m -3.39177,-0.20351 q 0,0.22612 0.12437,0.35049 0.13567,0.12436 0.36179,0.12436 0.28264,0 0.48615,-0.1922 v -0.67835 q -0.18089,-0.0905 -0.40701,-0.0905 -0.24873,0 -0.40701,0.12437 -0.15829,0.12436 -0.15829,0.36178 z"
           style="fill:#ffffff;stroke-width:0.282647"
           id="path2536" />
        <path
           d="m 299.90257,256.41571 v -1.13059 h 0.49746 v -4.44322 h -0.49746 v -1.13059 h 2.44208 v 5.57381 h 0.49746 v 1.13059 z"
           style="fill:#ffffff;stroke-width:0.282647"
           id="path2538" />
        <path
           d="m 304.45037,251.07933 q -0.50876,0 -0.81402,-0.29396 -0.30526,-0.29395 -0.30526,-0.7801 0,-0.48616 0.30526,-0.76881 0.30526,-0.29395 0.81402,-0.29395 0.50877,0 0.80272,0.29395 0.30526,0.28265 0.30526,0.76881 0.0113,0.48615 -0.29395,0.7801 -0.30526,0.29396 -0.81403,0.29396 z m -1.3454,5.33638 v -1.13059 h 0.49746 v -2.2951 h -0.49746 v -1.13059 h 2.47599 v 3.42569 h 0.49746 v 1.13059 z"
           style="fill:#ffffff;stroke-width:0.282647"
           id="path2540" />
        <path
           d="m 311.62008,255.28512 v 1.13059 h -2.09159 l -0.15829,-0.40701 q -0.5879,0.52007 -1.39062,0.52007 -0.68966,0 -1.09667,-0.35048 -0.39571,-0.36179 -0.39571,-0.97231 0,-0.72358 0.50877,-1.06276 0.52007,-0.35048 1.28887,-0.35048 0.53138,0 0.91578,0.13567 v -0.12436 q 0,-0.79142 -0.79142,-0.79142 -0.31656,0 -0.65574,0.0905 -0.32787,0.0791 -0.82533,0.29396 l -0.41832,-1.10798 q 1.23235,-0.54269 2.44208,-0.54269 1.04014,0 1.60543,0.50877 0.5653,0.50876 0.5653,1.43585 v 1.59413 z m -3.39177,-0.20351 q 0,0.22612 0.12436,0.35049 0.13567,0.12436 0.36179,0.12436 0.28265,0 0.48616,-0.1922 v -0.67835 q -0.1809,-0.0905 -0.40702,-0.0905 -0.24873,0 -0.40701,0.12437 -0.15828,0.12436 -0.15828,0.36178 z"
           style="fill:#ffffff;stroke-width:0.282647"
           id="path2542" />
        <path
           d="m 317.85175,255.28512 v 1.13059 h -2.86039 v -1.13059 h 0.3844 v -1.61674 q 0,-0.29396 -0.13567,-0.45224 -0.13567,-0.16959 -0.3844,-0.16959 -0.23743,0 -0.48616,0.12437 v 2.1142 h 0.3844 v 1.13059 h -2.86039 v -1.13059 h 0.49746 v -2.2951 h -0.49746 v -1.13059 h 2.3064 l 0.0452,0.3844 q 0.74619,-0.49746 1.5376,-0.49746 0.74619,0 1.1532,0.46355 0.41832,0.45223 0.41832,1.1532 v 1.922 z"
           style="fill:#ffffff;stroke-width:0.282647"
           id="path2544" />
        <path
           d="m 286.42064,265.67267 v -1.35671 h 0.5653 v -3.99098 h -0.5653 v -1.24365 h 3.39177 v 1.24365 h -0.56529 v 3.99098 h 1.48107 v -1.63935 h 1.46977 v 2.99606 z"
           style="font-style:normal;font-variant:normal;font-weight:900;font-stretch:normal;font-family:Rokkitt;-inkscape-font-specification:'Rokkitt Heavy';fill:#ffa200;fill-opacity:1;stroke-width:0.282647"
           id="path2546" />
        <path
           d="m 293.9615,260.33629 q -0.50877,0 -0.81402,-0.29396 -0.30526,-0.29395 -0.30526,-0.7801 0,-0.48616 0.30526,-0.7688 0.30525,-0.29396 0.81402,-0.29396 0.50877,0 0.80272,0.29396 0.30526,0.28264 0.30526,0.7688 0.0113,0.48615 -0.29396,0.7801 -0.30525,0.29396 -0.81402,0.29396 z m -1.3454,5.33638 v -1.13059 h 0.49746 v -2.2951 h -0.49746 v -1.13059 h 2.47599 v 3.42569 h 0.49746 v 1.13059 z"
           style="fill:#ffffff;stroke-width:0.282647"
           id="path2548" />
        <path
           d="m 301.79825,264.54208 v 1.13059 h -2.86039 v -1.13059 h 0.3844 v -1.61674 q 0,-0.29395 -0.13567,-0.45224 -0.13567,-0.16959 -0.3844,-0.16959 -0.23742,0 -0.48615,0.12437 v 2.1142 h 0.3844 v 1.13059 h -2.86039 v -1.13059 h 0.49745 v -2.2951 h -0.49745 v -1.13059 h 2.3064 l 0.0452,0.38441 q 0.74619,-0.49746 1.5376,-0.49746 0.74619,0 1.15321,0.46354 0.41831,0.45223 0.41831,1.1532 v 1.922 z"
           style="fill:#ffffff;stroke-width:0.282647"
           id="path2550" />
        <path
           d="m 307.98011,264.54208 v 1.13059 h -2.30641 l -0.0452,-0.3844 q -0.74619,0.49746 -1.5376,0.49746 -0.74619,0 -1.16451,-0.45223 -0.40701,-0.46355 -0.40701,-1.16451 v -1.92201 h -0.49746 v -1.13059 h 2.47599 v 2.74734 q 0,0.29395 0.13567,0.46354 0.13567,0.15828 0.3844,0.15828 0.23743,0 0.48616,-0.12436 v -2.11421 h -0.3844 v -1.13059 h 2.36293 v 3.42569 z"
           style="fill:#ffffff;stroke-width:0.282647"
           id="path2552" />
        <path
           d="m 308.23767,265.67267 v -1.13059 h 0.33918 l 1.16451,-1.17581 -1.06276,-1.11929 h -0.33918 v -1.13059 h 2.4873 v 1.11929 h -0.22612 l 0.46355,0.52007 0.46354,-0.52007 h -0.22612 v -1.11929 h 2.4873 v 1.13059 h -0.33918 l -1.06275,1.11929 1.1645,1.17581 h 0.33918 v 1.13059 h -2.54383 v -1.13059 h 0.27134 l -0.55398,-0.56529 -0.55399,0.56529 h 0.27134 v 1.13059 z"
           style="fill:#ffffff;stroke-width:0.282647"
           id="path2554" />
        <path
           d="m 290.23073,270.67862 q 1.10798,0.22611 1.61674,0.75749 0.52007,0.52007 0.52007,1.46977 0,1.01753 -0.63313,1.58282 -0.63313,0.55399 -1.70719,0.55399 -0.5766,0 -1.18712,-0.2035 -0.61051,-0.21481 -0.94969,-0.5766 v 0.66704 h -1.46977 v -2.24987 h 1.30018 q 0.30526,0.53138 0.78011,0.83664 0.48615,0.29395 1.08536,0.29395 0.29396,0 0.47485,-0.12436 0.1809,-0.13568 0.1809,-0.3844 0,-0.27135 -0.20351,-0.41832 -0.1922,-0.14698 -0.66705,-0.24873 l -0.90447,-0.1922 q -1.09667,-0.24873 -1.60544,-0.7688 -0.49746,-0.53138 -0.49746,-1.42455 0,-0.5879 0.27134,-1.04014 0.28265,-0.46354 0.79142,-0.72358 0.50876,-0.26003 1.17581,-0.26003 1.28887,0 2.08029,0.73488 v -0.62182 h 1.3567 v 1.94461 h -1.24365 q -0.22611,-0.35048 -0.63313,-0.58791 -0.40701,-0.23742 -0.91577,-0.23742 -0.59922,0 -0.59922,0.45224 0,0.26003 0.24873,0.40701 0.26004,0.14697 0.88186,0.27134 z"
           style="font-style:normal;font-variant:normal;font-weight:900;font-stretch:normal;font-family:Rokkitt;-inkscape-font-specification:'Rokkitt Heavy';fill:#ffa200;fill-opacity:1;stroke-width:0.282647"
           id="path2556" />
        <path
           d="m 295.54715,275.04269 q -0.75749,0 -1.3454,-0.29395 -0.5766,-0.30526 -0.89317,-0.84794 -0.31656,-0.54269 -0.31656,-1.25496 0,-0.71227 0.31656,-1.25495 0.31657,-0.54269 0.89317,-0.83664 0.58791,-0.29395 1.3454,-0.29395 0.7575,0 1.3341,0.29395 0.58791,0.29395 0.90447,0.83664 0.31657,0.54268 0.31657,1.25495 0,0.71227 -0.31657,1.25496 -0.31656,0.54268 -0.90447,0.84794 -0.5766,0.29395 -1.3341,0.29395 z m 0,-1.46976 q 0.35049,0.0113 0.54269,-0.23743 0.2035,-0.24873 0.2035,-0.68966 0,-0.44093 -0.1922,-0.67835 -0.1922,-0.23743 -0.55399,-0.23743 -0.36179,0 -0.55399,0.23743 -0.1922,0.23742 -0.1922,0.67835 0,0.44093 0.1922,0.68966 0.20351,0.24873 0.55399,0.23743 z"
           style="fill:#ffffff;stroke-width:0.282647"
           id="path2558" />
        <path
           d="m 303.2394,274.35303 q -0.89316,0.68966 -2.15942,0.68966 -0.78011,0 -1.37932,-0.30526 -0.58791,-0.30526 -0.91578,-0.85924 -0.31657,-0.55399 -0.31657,-1.28888 0,-0.68966 0.29396,-1.22103 0.29395,-0.53138 0.79141,-0.81403 0.50877,-0.29395 1.11929,-0.29395 0.73488,0 1.1645,0.37309 v -0.26003 h 1.25496 v 1.97853 h -1.17582 q -0.0678,-0.83664 -0.84794,-0.83664 -0.37309,0 -0.58791,0.26004 -0.2035,0.24873 -0.2035,0.71227 0,0.50877 0.30526,0.80272 0.30526,0.29395 0.83663,0.29395 0.74619,0 1.30018,-0.40701 z"
           style="fill:#ffffff;stroke-width:0.282647"
           id="path2560" />
        <path
           d="m 304.89201,269.59325 q -0.50877,0 -0.81403,-0.29395 -0.30525,-0.29396 -0.30525,-0.78011 0,-0.48615 0.30525,-0.7688 0.30526,-0.29396 0.81403,-0.29396 0.50876,0 0.80272,0.29396 0.30526,0.28265 0.30526,0.7688 0.0113,0.48615 -0.29396,0.78011 -0.30526,0.29395 -0.81402,0.29395 z m -1.3454,5.33638 v -1.13059 h 0.49746 v -2.29509 h -0.49746 v -1.13059 h 2.47599 v 3.42568 h 0.49746 v 1.13059 z"
           style="fill:#ffffff;stroke-width:0.282647"
           id="path2562" />
        <path
           d="m 311.58687,272.9511 h -2.91692 q 0.10175,0.31657 0.3844,0.47485 0.28264,0.14698 0.68966,0.14698 0.74619,0 1.30017,-0.40702 l 0.52008,1.17582 q -0.41832,0.33917 -0.96101,0.52007 -0.54268,0.18089 -1.17581,0.18089 -1.23234,0 -1.93331,-0.62182 -0.70096,-0.62183 -0.70096,-1.77503 0,-0.68966 0.31656,-1.23234 0.31657,-0.54268 0.88186,-0.84794 0.5766,-0.30526 1.31149,-0.30526 0.71227,0 1.22103,0.30526 0.52007,0.29395 0.79142,0.82533 0.27134,0.53138 0.27134,1.20973 z m -1.80895,-0.79141 q 0,-0.64444 -0.54268,-0.64444 -0.52007,0 -0.61052,0.64444 z"
           style="fill:#ffffff;stroke-width:0.282647"
           id="path2564" />
        <path
           d="m 313.9173,274.92963 q -1.51499,0 -1.51499,-1.3567 v -2.06898 h -0.50877 v -1.13059 h 0.49746 v -1.44716 l 1.97853,-0.26003 v 1.70719 h 0.97231 v 1.13059 h -0.97231 v 1.69588 q 0,0.30526 0.11306,0.42963 0.12437,0.12436 0.40701,0.12436 h 0.45224 v 1.17581 z"
           style="fill:#ffffff;stroke-width:0.282647"
           id="path2566" />
        <path
           d="m 316.51642,275.46101 h 0.37309 q 0.39571,0 0.61052,-0.11306 0.21481,-0.11306 0.39571,-0.41832 l 0.18089,-0.30525 h -0.48615 l -1.69589,-3.12043 h -0.33917 v -1.13059 h 2.86039 v 1.13059 h -0.49746 l 0.79141,1.65066 0.78011,-1.65066 h -0.49746 v -1.13059 h 2.4986 v 1.13059 h -0.33917 l -1.96723,3.75356 q -0.35048,0.66704 -0.59921,0.98361 -0.23743,0.31656 -0.59922,0.47485 -0.36178,0.15828 -0.9723,0.15828 h -0.49746 z"
           style="fill:#ffffff;stroke-width:0.282647"
           id="path2568" />
      </g>
      <g
         inkscape:export-ydpi="90"
         inkscape:export-xdpi="90"
         transform="matrix(0.22970633,0.07528349,-0.07394809,0.22563176,284.78046,199.52005)"
         id="g1470-1-1">
        <circle
           r="15.404826"
           cy="197.01552"
           cx="224.50641"
           id="circle1462-0-4"
           style="fill:#ffffff;fill-opacity:1;stroke:#000000;stroke-width:2.56034;stroke-linecap:round;stroke-linejoin:round;stroke-miterlimit:4;stroke-dasharray:none;stroke-opacity:1"
           transform="matrix(1.0431771,0,0,1.0431771,11.733742,-15.81225)" />
        <circle
           r="2.7779195"
           cy="196.51044"
           cx="228.04193"
           id="circle1464-2-4"
           style="fill:#000000;fill-opacity:1;stroke:#000000;stroke-width:2;stroke-linecap:round;stroke-linejoin:round;stroke-miterlimit:4;stroke-dasharray:none;stroke-opacity:1"
           transform="matrix(1.3354429,0,0,1.3354429,-66.581532,-72.718648)" />
        <circle
           r="15.404826"
           cy="197.01552"
           cx="224.50641"
           transform="matrix(-1.0431771,0,0,1.0431771,448.13363,-15.81225)"
           style="fill:#ffffff;fill-opacity:1;stroke:#000000;stroke-width:2.56034;stroke-linecap:round;stroke-linejoin:round;stroke-miterlimit:4;stroke-dasharray:none;stroke-opacity:1"
           id="circle1466-8-04" />
        <circle
           r="2.7779195"
           cy="196.51044"
           cx="228.04193"
           transform="matrix(-1.3354429,0,0,1.3354429,526.4489,-72.718648)"
           style="fill:#000000;fill-opacity:1;stroke:#000000;stroke-width:2;stroke-linecap:round;stroke-linejoin:round;stroke-miterlimit:4;stroke-dasharray:none;stroke-opacity:1"
           id="circle1468-2-8" />
      </g>
      <path
         inkscape:transform-center-x="-0.40270731"
         d="m 217.68787,239.1968 -7.43917,-12.88501 -7.43917,-12.88501 14.87834,0 14.87833,-1e-5 -7.43917,12.88502 z"
         sodipodi:type="star"
         style="fill:#ffa200;fill-opacity:1;stroke:#000000;stroke-width:2;stroke-linecap:round;stroke-linejoin:round;stroke-miterlimit:4;stroke-dasharray:none;stroke-opacity:1"
         id="path1460-3-5-6-3-0"
         sodipodi:sides="3"
         sodipodi:cx="217.68787"
         sodipodi:cy="222.01678"
         sodipodi:r1="17.180019"
         sodipodi:r2="8.5900087"
         sodipodi:arg1="1.5707963"
         sodipodi:arg2="2.6179939"
         inkscape:flatsided="false"
         inkscape:rounded="0"
         inkscape:randomized="0"
         inkscape:transform-center-y="1.8546549"
         transform="matrix(0.30459382,0.08720262,-0.0856558,0.29919087,274.46289,180.67327)"
         inkscape:export-xdpi="90"
         inkscape:export-ydpi="90" />
    </g>
  </g>
</svg>
